acls:
  enable: false
  modify_groups: []
  modify_users: []
  ui_users: []
  view_groups: []
  view_users: []
file_systems: []
master:
  env:
    SPARK_CONF_DIR: /etc/spark3/conf
    SPARK_HOME: /usr/lib/spark3
  files:
    airflow.keytab:
      size: 0
      source: file:///pytest/path/to/airflow.keytab
      timestamp: 0
      type: FILE
      visibility: APPLICATION
  log_level: INFO
  resources:
    fpgas: 0
    gpus: 0
    memory: 4096
    vcores: 1
  script: spark3-submit --driver-cores 2 --conf spark.executorEnv.SPARK_HOME=/usr/lib/spark3
    --conf spark.executorEnv.SPARK_CONF_DIR=/etc/spark3/conf --master yarn --conf
    spark.hadoop.fs.permissions.umask-mode=0022 --conf spark.dynamicAllocation.maxExecutors=25
    --conf spark.yarn.appMasterEnv.SPARK_CONF_DIR=/etc/spark3/conf --conf spark.yarn.appMasterEnv.SPARK_HOME=/usr/lib/spark3
    --executor-cores 8 --executor-memory 16g --driver-memory 2g --keytab airflow.keytab
    --principal airflow --name import_commons_ttl__munge_dumps__20230215 --class org.wikidata.query.rdf.spark.transform.structureddata.dumps.WikibaseRDFDumpConverter
    --queue production --deploy-mode cluster hdfs:///wmf/cache/artifacts/airflow/search/rdf-spark-tools-0.3.135-jar-with-dependencies.jar
    --input-path hdfs://analytics-hadoop/wmf/data/raw/commons/dumps/mediainfo-ttl/20230219/commons-20230219-mediainfo.ttl.bz2
    --output-table discovery.wikibase_rdf/date=20230219/wiki=commons --skolemize --site
    commons
max_attempts: 1
name: Airflow SparkSkeinSubmitHook skein launcher import_commons_ttl__munge_dumps__20230215
node_label: ''
queue: production
services: {}
tags: []
user: ''
