acls:
  enable: false
  modify_groups: []
  modify_users: []
  ui_users: []
  view_groups: []
  view_users: []
file_systems: []
master:
  env:
    PYSPARK_DRIVER_PYTHON: venv/bin/python
    PYSPARK_PYTHON: venv/bin/python
    SPARK_CONF_DIR: /etc/spark3/conf
    SPARK_HOME: /usr/lib/spark3
  files:
    airflow.keytab:
      size: 0
      source: file:///pytest/path/to/airflow.keytab
      timestamp: 0
      type: FILE
      visibility: APPLICATION
    venv:
      size: 0
      source: hdfs:///wmf/cache/artifacts/airflow/search/discolytics-0.17.0.conda.tgz
      timestamp: 0
      type: ARCHIVE
      visibility: APPLICATION
  log_level: INFO
  resources:
    fpgas: 0
    gpus: 0
    memory: 4096
    vcores: 1
  script: spark3-submit --driver-cores 2 --conf spark.executorEnv.PYSPARK_DRIVER_PYTHON=venv/bin/python
    --conf spark.executorEnv.PYSPARK_PYTHON=venv/bin/python --conf spark.executorEnv.SPARK_HOME=/usr/lib/spark3
    --conf spark.executorEnv.SPARK_CONF_DIR=/etc/spark3/conf --master yarn --conf
    spark.dynamicAllocation.enabled=true --conf spark.dynamicAllocation.maxExecutors=10
    --conf spark.shuffle.service.enabled=true --conf spark.yarn.maxAppAttempts=1 --conf
    spark.yarn.appMasterEnv.SPARK_CONF_DIR=/etc/spark3/conf --conf spark.yarn.appMasterEnv.SPARK_HOME=/usr/lib/spark3
    --conf spark.yarn.appMasterEnv.PYSPARK_PYTHON=venv/bin/python --conf spark.yarn.appMasterEnv.PYSPARK_DRIVER_PYTHON=venv/bin/python
    --archives 'hdfs:///wmf/cache/artifacts/airflow/search/discolytics-0.17.0.conda.tgz#venv'
    --jars hdfs:///wmf/cache/artifacts/airflow/search/elasticsearch-spark-30_2.12-7.17.9.jar
    --executor-cores 2 --executor-memory 4G --driver-memory 4G --keytab airflow.keytab
    --principal airflow --name export_queries_to_relforge__export_queries_to_relforge__20210218
    --queue production --deploy-mode cluster venv/bin/export_queries_to_relforge.py
    --search-satisfaction-partition event.searchsatisfaction/year=2021/month=2/day=18/hour=2
    --cirrus-events-partition event.mediawiki_cirrussearch_request/year=2021/month=2/day=18/hour=2
    --elastic-host relforge1003.eqiad.wmnet,relforge1004.eqiad.wmnet --elastic-port
    9243 --elastic-index 'joined_queries-{dt|yyyyMM}/_doc' --elastic-template joined_queries
max_attempts: 1
name: Airflow SparkSkeinSubmitHook skein launcher export_queries_to_relforge__export_queries_to_relforge__20210218
node_label: ''
queue: production
services: {}
tags: []
user: ''
