acls:
  enable: false
  modify_groups: []
  modify_users: []
  ui_users: []
  view_groups: []
  view_users: []
file_systems: []
master:
  env:
    PYSPARK_DRIVER_PYTHON: venv/bin/python
    PYSPARK_PYTHON: venv/bin/python
    SPARK_CONF_DIR: /etc/spark3/conf
    SPARK_HOME: /usr/lib/spark3
  files:
    airflow.keytab:
      size: 0
      source: file:///pytest/path/to/airflow.keytab
      timestamp: 0
      type: FILE
      visibility: APPLICATION
    venv:
      size: 0
      source: hdfs:///wmf/cache/artifacts/airflow/research/knowledge_gaps.tgz
      timestamp: 0
      type: ARCHIVE
      visibility: APPLICATION
  log_level: ERROR
  resources:
    fpgas: 0
    gpus: 0
    memory: 3815
    vcores: 2
  script: spark3-submit --driver-cores 2 --conf spark.executorEnv.PYSPARK_DRIVER_PYTHON=venv/bin/python
    --conf spark.executorEnv.PYSPARK_PYTHON=venv/bin/python --conf spark.executorEnv.SPARK_HOME=/usr/lib/spark3
    --conf spark.executorEnv.SPARK_CONF_DIR=/etc/spark3/conf --master yarn --conf
    spark.executor.memoryOverhead=2g --conf spark.dynamicAllocation.maxExecutors=100
    --conf spark.sql.shuffle.partitions=500 --conf spark.hadoop.hive.exec.dynamic.partition=true
    --conf spark.hadoop.hive.exec.dynamic.partition.mode=nonstrict --conf spark.sql.legacy.timeParserPolicy=LEGACY
    --conf spark.yarn.appMasterEnv.SPARK_CONF_DIR=/etc/spark3/conf --conf spark.yarn.appMasterEnv.SPARK_HOME=/usr/lib/spark3
    --conf spark.yarn.appMasterEnv.PYSPARK_PYTHON=venv/bin/python --conf spark.yarn.appMasterEnv.PYSPARK_DRIVER_PYTHON=venv/bin/python
    --archives 'hdfs:///wmf/cache/artifacts/airflow/research/knowledge_gaps.tgz#venv'
    --executor-cores 4 --executor-memory 12G --driver-memory 4G --keytab airflow.keytab
    --principal airflow --name pageviews_daily__update_pageviews_daily__20220116 --queue
    production --deploy-mode client venv/bin/pageviews.py --mode update --database_name
    knowledge_gaps
max_attempts: 1
name: Airflow SparkSkeinSubmitHook skein launcher pageviews_daily__update_pageviews_daily__20220116
node_label: ''
queue: production
services: {}
tags: []
user: ''
